data wrangling
…
summarise (use to calculate the statistic)

( summarise itself is not helpful; but combine with Group_by, it becomes super helpful) summarise and group_by

french_fries %>%
    group_by(time, treatment) %>%
    summarise(mean_rancid = mean(rancid), sd_rancid = sd(rancid))
#> Source: local data frame [30 x 4]
#> Groups: time [?]
#> 
#>      time treatment mean_rancid sd_rancid
#>    <fctr>    <fctr>       <dbl>     <dbl>
#> 1       1         1    2.758333  3.212870
#> 2       1         2    1.716667  2.714801
#> 3       1         3    2.600000  3.202037
#> 4       2         1    3.900000  4.374730
#> 5       2         2    2.141667  3.117540
#> 6       2         3    2.495833  3.378767
#> 7       3         1    4.650000  3.933358
#> 8       3         2    2.895833  3.773532
#> 9       3         3    3.600000  3.592867
#> 10      4         1    2.079167  2.394737
#> # ... with 20 more rows
…
